{
    "geo":null,
    "in_reply_to_status_id":null,
    "text":"Luis fonsi on the radio:))",
    "id_str":"181106607390855168",
    "contributors":null,
    "in_reply_to_status_id_str":null,
    "retweet_count":0,
    "truncated":false,
    "entities":{
        "urls":[],
        "hashtags":[],
        "user_mentions":[]
    },
    "in_reply_to_user_id_str":null,
    "place":null,
    "retweeted":false,
    "source":"\u003Cahref=\"http:\/\/twitter.com\/#!\/download\/iphone\" rel=\"nofollow\"\u003ETwitter for iPhone\u003C\/a\u003E",
    "coordinates":null,
    "in_reply_to_screen_name":null,
    "user":{
        "default_profile_image":false,
        "profile_background_color":"f5e9cc", 
        "url":null, 
        "id_str":"157885357",
        "verified":false, 
        "profile_background_tile":true, 
        "favourites_count":29,
        "contributors_enabled":false, 
        "geo_enabled":true, 
        "friends_count":133,
        "profile_sidebar_fill_color":"ffffff", 
        "lang":"en", 
        "description":"Vive la vida.", 
        "location":"", 
        "profile_sidebar_border_color":"fffcff",
        "show_all_inline_media":false, 
        "listed_count":0,
        "follow_request_sent":null, 
        "notifications":null,
        "time_zone":"Greenland",
        "is_translator":false,
        "following":null,
        "profile_use_background_image":true,
        "screen_name":"_mariaav",
        "default_profile":false,
        "statuses_count":9363,
        "profile_text_color":"c77777",
        "followers_count":153,
        "protected":false,
        "profile_image_url":"http:\/\/a0.twimg.com\/profile_images\/1902560767\/image_normal.jpg",
        "profile_background_image_url":"http:\/\/a0.twimg.com\/profile_background_images\/237275441\/12808361326482_large.jpg",
        "name":"mariaaaa;*",
        "profile_background_image_url_https":"https:\/\/si0.twimg.com\/profile_background_images\/237275441\/12808361326482_large.jpg",
        "profile_link_color":"71a38b",
        "id":157885357,
        "utc_offset":-10800,
        "created_at":"Mon Jun 21 04:39:42 +0000 2010",
        "profile_image_url_https":"https:\/\/si0.twimg.com\/profile_images\/1902560767\/image_normal.jpg"
    }, 
    "favorited":false, 
    "id":181106607390855168,
    "in_reply_to_user_id":null, 
    "created_at":"Sat Mar 17 19:55:54 +0000 2012"
}
          

